Toca Raul
…
Correlações muitas baixas fará com que o mapa fique elegível, por isso optei por correlações maior que 0.13.

A escolha do número 13 não foi ao acaso, foi escolhido para representar o sentimento esquerdista e anarquista de Raul Seixas.

Código

raul_cor <- letras_pt_filtrado %>%
  filter(album != "Composições",
         !grepl("versão", nome, ignore.case = TRUE)) |>
  pairwise_cor(nome, palavra, sort = TRUE)

raul_cor

# A tibble: 25,122 × 3
   item1                                        item2                correlation
   <chr>                                        <chr>                      <dbl>
 1 Anarkilópolis (Cowboy Fora Da Lei, parte. 2) Anarkilopólis              0.996
 2 Anarkilopólis                                Anarkilópolis (Cowb…       0.996
 3 Caminhos II                                  Caminhos                   0.442
 4 Caminhos                                     Caminhos II                0.442
 5 A Lei                                        Sociedade Alternati…       0.289
 6 Sociedade Alternativa                        A Lei                      0.289
 7 Cowboy Fora da Lei                           Anarkilopólis              0.274
 8 Anarkilopólis                                Cowboy Fora da Lei         0.274
 9 Cowboy Fora da Lei                           Anarkilópolis (Cowb…       0.273
10 Anarkilópolis (Cowboy Fora Da Lei, parte. 2) Cowboy Fora da Lei         0.273
# ℹ 25,112 more rows
…
